C:\Users\Laptopeg\IdeaProjects\GeneticAlgorithm\src\main\java\main.java
C:\Users\Laptopeg\IdeaProjects\GeneticAlgorithm\src\main\java\FitnessCalculatable.java
C:\Users\Laptopeg\IdeaProjects\GeneticAlgorithm\src\main\java\StringGenerator.java
C:\Users\Laptopeg\IdeaProjects\GeneticAlgorithm\src\main\java\Population.java
C:\Users\Laptopeg\IdeaProjects\GeneticAlgorithm\src\main\java\CannotFindException.java
C:\Users\Laptopeg\IdeaProjects\GeneticAlgorithm\src\main\java\DNA.java
